(43, 301, "./Sprites/concrete1.png")
(86, 301, "./Sprites/concrete1.png")
(129, 301, "./Sprites/concrete1.png")
(172, 430, "./Sprites/concrete1.png")
(215, 430, "./Sprites/concrete1.png")
(258, 430, "./Sprites/concrete1.png")
(258, 559, "./Sprites/concrete1.png")
(301, 559, "./Sprites/concrete1.png")
(344, 559, "./Sprites/concrete1.png")
(344, 688, "./Sprites/concrete1.png")
(387, 688, "./Sprites/concrete1.png")
(430, 688, "./Sprites/concrete1.png")
(430, 817, "./Sprites/concrete1.png")
(473, 817, "./Sprites/concrete1.png")
(516, 817, "./Sprites/concrete1.png")
(516, 946, "./Sprites/concrete1.png")
(559, 946, "./Sprites/concrete1.png")
(602, 946, "./Sprites/concrete1.png")
(559, 1161, "./Sprites/concrete1.png")
(559, 1204, "./Sprites/concrete1.png")
(559, 1247, "./Sprites/concrete1.png")
(559, 1290, "./Sprites/concrete1.png")
(559, 1333, "./Sprites/concrete1.png")
(602, 1333, "./Sprites/concrete1.png")
(688, 1333, "./Sprites/concrete1.png")
(645, 1333, "./Sprites/special/glass.png")
(731, 1333, "./Sprites/special/glass.png")
(774, 1333, "./Sprites/special/glass.png")
(817, 1333, "./Sprites/concrete1.png")
(860, 1333, "./Sprites/concrete1.png")
(860, 1290, "./Sprites/concrete1.png")
(860, 1247, "./Sprites/concrete1.png")
(-129, 860, "./Sprites/concrete1.png")
(-86, 860, "./Sprites/concrete1.png")
(-258, 989, "./Sprites/concrete1.png")
(-559, 989, "./Sprites/Stone_brick_2.png")
(-559, 946, "./Sprites/Stone_brick_2.png")
(-516, 903, "./Sprites/Stone_brick_2.png")
(-473, 860, "./Sprites/Stone_brick_2.png")
(-516, 860, "./Sprites/Stone_brick_2.png")
(-473, 817, "./Sprites/Stone_brick_2.png")
(-430, 817, "./Sprites/Stone_brick_2.png")
(-387, 860, "./Sprites/Stone_brick_2.png")
(-387, 903, "./Sprites/Stone_brick_2.png")
(-430, 860, "./Sprites/Stone_brick_2.png")
(-344, 946, "./Sprites/Stone_brick_2.png")
(-344, 989, "./Sprites/Stone_brick_2.png")
(-387, 946, "./Sprites/Stone_brick_2.png")
(-516, 946, "./Sprites/Stone_brick_2.png")
(-473, 903, "./Sprites/special/glass.png")
(-430, 903, "./Sprites/special/glass.png")
(-387, 989, "./Sprites/special/glass.png")
(-516, 989, "./Sprites/special/glass.png")
(-301, 1118, "./Sprites/concrete1-slab.png")
(-344, 1118, "./Sprites/concrete1-slab.png")
(-387, 1118, "./Sprites/concrete1-slab.png")
(-430, 1118, "./Sprites/special/bouncer.png")
(-516, 1290, "./Sprites/concrete1.png")
(-473, 1290, "./Sprites/concrete1.png")
(387, 1333, "./Sprites/stone_brick2-stairs.png")
(430, 1290, "./Sprites/stone_brick2-stairs.png")
(473, 1247, "./Sprites/stone_brick2-stairs.png")
(516, 1204, "./Sprites/special/bouncer.png")
(516, 1247, "./Sprites/Stone_brick_2.png")
(473, 1290, "./Sprites/Stone_brick_2.png")
(430, 1333, "./Sprites/Stone_brick_2.png")
(473, 1333, "./Sprites/Stone_brick_2.png")
(516, 1333, "./Sprites/Stone_brick_2.png")
(516, 1290, "./Sprites/Stone_brick_2.png")
(344, 1376, "./Sprites/Stone_brick_2.png")
(301, 1376, "./Sprites/Stone_brick_2.png")
(215, 1376, "./Sprites/Stone_brick_2.png")
(258, 1376, "./Sprites/Stone_brick_2.png")
(129, 1376, "./Sprites/Stone_brick_2.png")
(172, 1376, "./Sprites/Stone_brick_2.png")
(86, 1376, "./Sprites/Stone_brick_2.png")
(43, 1376, "./Sprites/Stone_brick_2.png")
(86, 1161, "./Sprites/special/teleporter.png")
(-473, 1247, "./Sprites/special/teleporter.png")
(1032, 1247, "./Sprites/concrete1.png")
(1075, 1247, "./Sprites/concrete1.png")
(1118, 1247, "./Sprites/concrete1.png")
(1161, 1204, "./Sprites/concrete1-stairs.png")
(1204, 1161, "./Sprites/concrete1-stairs.png")
(1247, 1118, "./Sprites/concrete1-stairs.png")
(1290, 1075, "./Sprites/concrete1-stairs.png")
(1290, 1118, "./Sprites/concrete1.png")
(1247, 1161, "./Sprites/concrete1.png")
(1204, 1204, "./Sprites/concrete1.png")
(1247, 1204, "./Sprites/concrete1.png")
(1290, 1161, "./Sprites/concrete8.png")
(1290, 1204, "./Sprites/concrete8.png")
(1333, 1118, "./Sprites/concrete8.png")
(1333, 1075, "./Sprites/concrete8.png")
(1333, 1161, "./Sprites/concrete8.png")
(1376, 1075, "./Sprites/special/glass.png")
(1419, 1075, "./Sprites/special/glass.png")
(1462, 1075, "./Sprites/special/glass.png")
(1548, 1075, "./Sprites/special/glass.png")
(1591, 1075, "./Sprites/special/glass.png")
(1634, 1075, "./Sprites/special/glass.png")
(1763, 1075, "./Sprites/special/glass.png")
(1720, 1075, "./Sprites/special/glass.png")
(1806, 1075, "./Sprites/special/glass.png")
(1978, 1075, "./Sprites/special/glass.png")
(1935, 1075, "./Sprites/special/glass.png")
(2021, 1075, "./Sprites/special/glass.png")
(2064, 1075, "./Sprites/special/glass.png")
(2107, 1075, "./Sprites/special/glass.png")
(2150, 1075, "./Sprites/concrete1.png")
(2193, 1032, "./Sprites/concrete1.png")
(2279, 989, "./Sprites/concrete1.png")
(2322, 946, "./Sprites/concrete1.png")
(2408, 903, "./Sprites/concrete1.png")
(2451, 860, "./Sprites/concrete1.png")
(2537, 860, "./Sprites/concrete1.png")
(2580, 860, "./Sprites/concrete1.png")
(2623, 860, "./Sprites/concrete1.png")
(2666, 860, "./Sprites/concrete1.png")
(2709, 860, "./Sprites/concrete1.png")
(2752, 860, "./Sprites/special/glass.png")
(2795, 860, "./Sprites/special/glass.png")
(2838, 860, "./Sprites/special/glass.png")
(2881, 860, "./Sprites/special/glass.png")
(2881, 774, "./Sprites/concrete1.png")
(2924, 731, "./Sprites/concrete1.png")
(3010, 731, "./Sprites/concrete1.png")
(3053, 731, "./Sprites/concrete1.png")
(3096, 731, "./Sprites/concrete1.png")
(3139, 731, "./Sprites/concrete1.png")
(3182, 731, "./Sprites/concrete1.png")
(3225, 731, "./Sprites/concrete1.png")
(3268, 688, "./Sprites/stone_brick2-stairs.png")
(3311, 645, "./Sprites/stone_brick2-stairs.png")
(3354, 602, "./Sprites/stone_brick2-stairs.png")
(3397, 559, "./Sprites/stone_brick2-stairs.png")
(3440, 516, "./Sprites/stone_brick2-stairs.png")
(3483, 473, "./Sprites/stone_brick2-stairs.png")
(3526, 430, "./Sprites/stone_brick2-stairs.png")
(3569, 387, "./Sprites/stone_brick2-stairs.png")
(3612, 344, "./Sprites/stone_brick2-stairs.png")
(3612, 387, "./Sprites/Stone_brick_2.png")
(3612, 430, "./Sprites/Stone_brick_2.png")
(3569, 430, "./Sprites/Stone_brick_2.png")
(3526, 473, "./Sprites/Stone_brick_2.png")
(3483, 516, "./Sprites/Stone_brick_2.png")
(3440, 559, "./Sprites/Stone_brick_2.png")
(3397, 602, "./Sprites/Stone_brick_2.png")
(3354, 645, "./Sprites/Stone_brick_2.png")
(3311, 688, "./Sprites/Stone_brick_2.png")
(3268, 731, "./Sprites/Stone_brick_2.png")
(3569, 473, "./Sprites/Stone_brick_2.png")
(3526, 516, "./Sprites/Stone_brick_2.png")
(3483, 559, "./Sprites/Stone_brick_2.png")
(3440, 602, "./Sprites/Stone_brick_2.png")
(3397, 645, "./Sprites/Stone_brick_2.png")
(3354, 688, "./Sprites/Stone_brick_2.png")
(3311, 731, "./Sprites/Stone_brick_2.png")
(3655, 344, "./Sprites/Stone_brick_2.png")
(3784, 344, "./Sprites/Stone_brick_2.png")
(3741, 344, "./Sprites/Stone_brick_2.png")
(3698, 215, "./Sprites/Stone_brick_2.png")
(3698, 129, "./Sprites/Stone_brick_2.png")
(3698, 172, "./Sprites/Stone_brick_2.png")
(3870, 301, "./Sprites/Stone_brick_2.png")
(3870, 258, "./Sprites/Stone_brick_2.png")
(3870, 215, "./Sprites/Stone_brick_2.png")
(3870, 172, "./Sprites/Stone_brick_2.png")
(3870, 129, "./Sprites/Stone_brick_2.png")
(3870, -86, "./Sprites/Stone_brick_2.png")
(3870, -43, "./Sprites/Stone_brick_2.png")
(3870, 43, "./Sprites/Stone_brick_2.png")
(3870, 0, "./Sprites/Stone_brick_2.png")
(3870, 86, "./Sprites/Stone_brick_2.png")
(3698, 86, "./Sprites/Stone_brick_2.png")
(3698, 0, "./Sprites/Stone_brick_2.png")
(3698, 43, "./Sprites/Stone_brick_2.png")
(3698, -43, "./Sprites/Stone_brick_2.png")
(3698, -86, "./Sprites/Stone_brick_2.png")
(3741, -129, "./Sprites/Stone_brick_2.png")
(3741, -172, "./Sprites/Stone_brick_2.png")
(3741, -215, "./Sprites/Stone_brick_2.png")
(3784, -215, "./Sprites/Stone_brick_2.png")
(3827, -215, "./Sprites/Stone_brick_2.png")
(3827, -172, "./Sprites/Stone_brick_2.png")
(3827, -129, "./Sprites/Stone_brick_2.png")
(3784, -258, "./Sprites/stone_brick_2-slab.png")
(3698, -129, "./Sprites/stone_brick2-stairs.png")
(3870, -129, "./Sprites/stone_brick_2-slab.png")
(3913, -129, "./Sprites/stone_brick_2-slab.png")
(3913, -86, "./Sprites/Stone_brick_2.png")
(3913, 0, "./Sprites/Stone_brick_2.png")
(3913, -43, "./Sprites/Stone_brick_2.png")
(3913, 43, "./Sprites/Stone_brick_2.png")
(3913, 129, "./Sprites/Stone_brick_2.png")
(3913, 86, "./Sprites/Stone_brick_2.png")
(3913, 301, "./Sprites/Stone_brick_2.png")
(3913, 215, "./Sprites/Stone_brick_2.png")
(3913, 258, "./Sprites/Stone_brick_2.png")
(3956, -172, "./Sprites/Stone_brick_2.png")
(3956, -215, "./Sprites/Stone_brick_2.png")
(4042, -215, "./Sprites/Stone_brick_2.png")
(4042, -172, "./Sprites/Stone_brick_2.png")
(4042, -129, "./Sprites/Stone_brick_2.png")
(3999, -215, "./Sprites/Stone_brick_2.png")
(4085, -86, "./Sprites/Stone_brick_2.png")
(4085, -43, "./Sprites/Stone_brick_2.png")
(4085, 0, "./Sprites/Stone_brick_2.png")
(4085, 43, "./Sprites/Stone_brick_2.png")
(4085, 86, "./Sprites/Stone_brick_2.png")
(4085, 129, "./Sprites/Stone_brick_2.png")
(4085, 215, "./Sprites/Stone_brick_2.png")
(4085, 301, "./Sprites/Stone_brick_2.png")
(4085, 258, "./Sprites/Stone_brick_2.png")
(4085, 172, "./Sprites/Stone_brick_2.png")
(3827, 344, "./Sprites/Stone_brick_2.png")
(3913, 344, "./Sprites/Stone_brick_2.png")
(3870, 344, "./Sprites/Stone_brick_2.png")
(3956, 344, "./Sprites/Stone_brick_2.png")
(3999, 344, "./Sprites/Stone_brick_2.png")
(4042, 344, "./Sprites/Stone_brick_2.png")
(4085, 344, "./Sprites/Stone_brick_2.png")
(3999, -172, "./Sprites/special/glass.png")
(3999, -129, "./Sprites/special/glass.png")
(3784, -172, "./Sprites/special/glass.png")
(3784, -129, "./Sprites/special/glass.png")
(3741, 129, "./Sprites/Stone_brick_2.png")
(3784, 129, "./Sprites/Stone_brick_2.png")
(3784, 86, "./Sprites/Stone_brick_2.png")
(3999, 129, "./Sprites/Stone_brick_2.png")
(3999, 0, "./Sprites/Stone_brick_2.png")
(3741, -86, "./Sprites/Stone_brick_2.png")
(3827, -86, "./Sprites/Stone_brick_2.png")
(3784, -86, "./Sprites/Stone_brick_2.png")
(3784, -43, "./Sprites/Stone_brick_2.png")
(3741, -43, "./Sprites/Stone_brick_2.png")
(3741, 0, "./Sprites/Stone_brick_2.png")
(3741, 43, "./Sprites/Stone_brick_2.png")
(3741, 86, "./Sprites/Stone_brick_2.png")
(3741, 172, "./Sprites/Stone_brick_2.png")
(3784, 172, "./Sprites/Stone_brick_2.png")
(3741, 215, "./Sprites/Stone_brick_2.png")
(3784, 215, "./Sprites/Stone_brick_2.png")
(3741, 258, "./Sprites/Stone_brick_2.png")
(3741, 301, "./Sprites/Stone_brick_2.png")
(3827, 301, "./Sprites/Stone_brick_2.png")
(3827, 215, "./Sprites/Stone_brick_2.png")
(3827, 258, "./Sprites/Stone_brick_2.png")
(3827, 172, "./Sprites/Stone_brick_2.png")
(3827, 129, "./Sprites/Stone_brick_2.png")
(3827, 86, "./Sprites/Stone_brick_2.png")
(3784, 43, "./Sprites/Stone_brick_2.png")
(3784, 0, "./Sprites/Stone_brick_2.png")
(3827, 0, "./Sprites/Stone_brick_2.png")
(3827, 43, "./Sprites/Stone_brick_2.png")
(3827, -43, "./Sprites/Stone_brick_2.png")
(3956, -129, "./Sprites/Stone_brick_2.png")
(3956, -86, "./Sprites/Stone_brick_2.png")
(3999, -86, "./Sprites/Stone_brick_2.png")
(3999, -43, "./Sprites/Stone_brick_2.png")
(4042, -86, "./Sprites/Stone_brick_2.png")
(4042, -43, "./Sprites/Stone_brick_2.png")
(4042, 0, "./Sprites/Stone_brick_2.png")
(3956, 43, "./Sprites/Stone_brick_2.png")
(3956, -43, "./Sprites/Stone_brick_2.png")
(3956, 86, "./Sprites/Stone_brick_2.png")
(3956, 129, "./Sprites/Stone_brick_2.png")
(3956, 0, "./Sprites/Stone_brick_2.png")
(3999, 43, "./Sprites/Stone_brick_2.png")
(3999, 86, "./Sprites/Stone_brick_2.png")
(4042, 43, "./Sprites/Stone_brick_2.png")
(4042, 129, "./Sprites/Stone_brick_2.png")
(4042, 86, "./Sprites/Stone_brick_2.png")
(3999, 215, "./Sprites/Stone_brick_2.png")
(3913, 172, "./Sprites/Stone_brick_2.png")
(3956, 215, "./Sprites/Stone_brick_2.png")
(3956, 301, "./Sprites/Stone_brick_2.png")
(3956, 258, "./Sprites/Stone_brick_2.png")
(3956, 172, "./Sprites/Stone_brick_2.png")
(3999, 172, "./Sprites/Stone_brick_2.png")
(4042, 172, "./Sprites/Stone_brick_2.png")
(4042, 258, "./Sprites/Stone_brick_2.png")
(4042, 215, "./Sprites/Stone_brick_2.png")
(4042, 301, "./Sprites/Stone_brick_2.png")
(3999, -258, "./Sprites/stone_brick_2-slab.png")
(4085, -129, "./Sprites/stone_brick_2-slab.png")
(3698, 731, "./Sprites/Stone_brick_2.png")
(3741, 731, "./Sprites/Stone_brick_2.png")
(3784, 731, "./Sprites/Stone_brick_2.png")
(3483, 903, "./Sprites/damage/spike.png")
(3526, 903, "./Sprites/damage/spike.png")
(3612, 903, "./Sprites/damage/spike.png")
(3569, 903, "./Sprites/damage/spike.png")
(3913, 731, "./Sprites/concrete1.png")
(3956, 731, "./Sprites/concrete1.png")
(3870, 731, "./Sprites/concrete1.png")
(3956, 903, "./Sprites/concrete1.png")
(3999, 903, "./Sprites/concrete1.png")
(4042, 903, "./Sprites/concrete1.png")
(4085, 903, "./Sprites/concrete1.png")
(4042, 1075, "./Sprites/concrete1.png")
(4085, 1075, "./Sprites/concrete1.png")
(4128, 1075, "./Sprites/concrete1.png")
(4171, 1075, "./Sprites/concrete1.png")
(4214, 1075, "./Sprites/concrete1.png")
(4171, 1247, "./Sprites/concrete1.png")
(4214, 1247, "./Sprites/concrete1.png")
(4257, 1247, "./Sprites/concrete1.png")
(4300, 1247, "./Sprites/concrete1.png")
(4343, 1247, "./Sprites/concrete1.png")
(4128, 1634, "./Sprites/concrete1.png")
(4085, 1634, "./Sprites/concrete1.png")
(3999, 1634, "./Sprites/concrete1.png")
(4171, 1634, "./Sprites/concrete1.png")
(4042, 1634, "./Sprites/concrete1.png")
(3913, 1634, "./Sprites/concrete1.png")
(3956, 1634, "./Sprites/concrete1.png")
(3784, 1634, "./Sprites/concrete1.png")
(3827, 1634, "./Sprites/concrete1.png")
(3870, 1634, "./Sprites/concrete1.png")
(3741, 1634, "./Sprites/concrete1.png")
(3698, 1634, "./Sprites/concrete1.png")
(3612, 1634, "./Sprites/concrete1.png")
(3655, 1634, "./Sprites/concrete1.png")
(3569, 1634, "./Sprites/concrete1.png")
(602, 1247, "./Sprites/special/iron_crate.png")
(903, 1333, "./Sprites/concrete1.png")
(903, 1290, "./Sprites/concrete1.png")
(903, 1247, "./Sprites/concrete1.png")
(559, 1376, "./Sprites/concrete1.png")
(602, 1376, "./Sprites/concrete1.png")
(645, 1376, "./Sprites/concrete1.png")
(688, 1376, "./Sprites/concrete1.png")
(731, 1376, "./Sprites/concrete1.png")
(774, 1376, "./Sprites/concrete1.png")
(817, 1376, "./Sprites/concrete1.png")
(989, 1247, "./Sprites/concrete1.png")
(1892, 1075, "./Sprites/special/glass.png")
(3526, 1634, "./Sprites/special/bouncer.png")
(3526, 1462, "./Sprites/special/flag.png")
(1161, 1247, "./Sprites/concrete1.png")
(1204, 1247, "./Sprites/concrete1.png")
(2193, 1075, "./Sprites/concrete1.png")
(2322, 989, "./Sprites/concrete1.png")
(2451, 903, "./Sprites/concrete1.png")
(2924, 774, "./Sprites/concrete1.png")
(86, 258, "./Sprites/special/spawn.png")
(43, 44, 90)
-3311
-1075
[(-430, 946, './Sprites/ennemy/items/key.png'), (2709, 774, './Sprites/ennemy/angel/angel.png'), (3096, 688, './Sprites/ennemy/turret/idle/idle.png'), (3225, 688, './Sprites/ennemy/turret/idle/idle.png'), (688, 989, './Sprites/ennemy/penguini/idle/idle.png'), '(-430, 946, "./Sprites/ennemy/items/key.png")', '(2709, 774, "./Sprites/ennemy/angel/angel.png")', '(688, 989, "./Sprites/ennemy/penguini/idle/idle.png")', '(3096, 645, "./Sprites/ennemy/turret/idle/idle.png")', '(3225, 645, "./Sprites/ennemy/turret/idle/idle.png")']
