(129, 387, "./Sprites/dirt.png")
(172, 430, "./Sprites/concrete7.png")
(258, 387, "./Sprites/concrete7.png")
(86, 516, "./Sprites/concrete7.png")
(43, 430, "./Sprites/concrete7.png")
(86, 387, "./Sprites/concrete5.png")
(43, 387, "./Sprites/concrete5.png")
(43, 473, "./Sprites/concrete5.png")
(0, 430, "./Sprites/concrete5.png")
(86, 473, "./Sprites/concrete5.png")
(86, 430, "./Sprites/dirt.png")
(0, 473, "./Sprites/dirt.png")
(129, 516, "./Sprites/dirt.png")
(172, 516, "./Sprites/dirt.png")
(215, 516, "./Sprites/dirt.png")
(215, 473, "./Sprites/dirt.png")
(129, 473, "./Sprites/dirt.png")
(172, 473, "./Sprites/dirt.png")
(129, 430, "./Sprites/dirt.png")
(172, 387, "./Sprites/dirt.png")
(215, 387, "./Sprites/dirt.png")
(215, 344, "./Sprites/dirt.png")
(215, 430, "./Sprites/dirt.png")
(301, 430, "./Sprites/dirt.png")
(258, 430, "./Sprites/dirt.png")
(301, 387, "./Sprites/dirt.png")
(258, 344, "./Sprites/dirt.png")
(301, 344, "./Sprites/dirt.png")
(344, 344, "./Sprites/dirt.png")
(430, 344, "./Sprites/dirt.png")
(473, 344, "./Sprites/dirt.png")
(473, 301, "./Sprites/damage/spike.png")
(516, 473, "./Sprites/dirt.png")
(688, 473, "./Sprites/dirt.png")
(731, 473, "./Sprites/dirt.png")
(774, 473, "./Sprites/dirt.png")
(817, 473, "./Sprites/dirt.png")
(731, 430, "./Sprites/dirt.png")
(774, 430, "./Sprites/damage/barbed.png")
(817, 387, "./Sprites/dirt.png")
(817, 430, "./Sprites/dirt.png")
(946, 473, "./Sprites/dirt.png")
(989, 473, "./Sprites/dirt.png")
(1032, 473, "./Sprites/dirt.png")
(1075, 430, "./Sprites/special/iron_crate.png")
(1118, 602, "./Sprites/concrete7.png")
(1032, 559, "./Sprites/concrete7.png")
(1032, 602, "./Sprites/concrete7.png")
(1161, 602, "./Sprites/concrete7.png")
(1075, 602, "./Sprites/dirt.png")
(1247, 602, "./Sprites/dirt.png")
(1204, 602, "./Sprites/concrete7.png")
(1161, 559, "./Sprites/damage/spike.png")
(1247, 559, "./Sprites/damage/spike.png")
(1075, 559, "./Sprites/damage/spike.png")
(1118, 559, "./Sprites/damage/barbed.png")
(1204, 559, "./Sprites/damage/barbed.png")
(1290, 602, "./Sprites/dirt.png")
(1333, 602, "./Sprites/dirt.png")
(1376, 602, "./Sprites/dirt.png")
(1419, 602, "./Sprites/concrete7.png")
(1505, 602, "./Sprites/concrete7.png")
(1333, 559, "./Sprites/damage/spike.png")
(1419, 559, "./Sprites/damage/spike.png")
(1505, 559, "./Sprites/damage/spike.png")
(1290, 559, "./Sprites/damage/barbed.png")
(1376, 559, "./Sprites/damage/barbed.png")
(1591, 430, "./Sprites/concrete11-stairs.png")
(1548, 559, "./Sprites/concrete7.png")
(1548, 516, "./Sprites/concrete7.png")
(1548, 473, "./Sprites/special/teleporter.png")
(1462, 817, "./Sprites/concrete7.png")
(1591, 817, "./Sprites/concrete7.png")
(1634, 817, "./Sprites/concrete7.png")
(1634, 387, "./Sprites/concrete11-stairs.png")
(1677, 344, "./Sprites/concrete11-stairs.png")
(1720, 344, "./Sprites/concrete7.png")
(1677, 387, "./Sprites/concrete7.png")
(1634, 430, "./Sprites/concrete7.png")
(1677, 430, "./Sprites/concrete7.png")
(1720, 430, "./Sprites/concrete7.png")
(1720, 387, "./Sprites/concrete7.png")
(1763, 430, "./Sprites/damage/lava.png")
(1806, 430, "./Sprites/damage/lava.png")
(1806, 473, "./Sprites/damage/lava_2.png")
(1763, 473, "./Sprites/damage/lava_2.png")
(1763, 516, "./Sprites/damage/lava_2.png")
(1806, 516, "./Sprites/damage/lava_2.png")
(1720, 473, "./Sprites/dirt.png")
(1720, 516, "./Sprites/dirt.png")
(1763, 559, "./Sprites/dirt.png")
(1806, 559, "./Sprites/dirt.png")
(1849, 559, "./Sprites/dirt.png")
(1849, 516, "./Sprites/dirt.png")
(1849, 473, "./Sprites/dirt.png")
(1806, 602, "./Sprites/dirt.png")
(1763, 602, "./Sprites/dirt.png")
(1634, 473, "./Sprites/concrete7.png")
(1677, 473, "./Sprites/concrete7.png")
(1591, 516, "./Sprites/concrete7.png")
(1591, 473, "./Sprites/concrete7.png")
(2021, 301, "./Sprites/concrete7.png")
(2064, 301, "./Sprites/concrete7.png")
(2107, 301, "./Sprites/concrete7.png")
(2107, 344, "./Sprites/concrete7.png")
(2107, 430, "./Sprites/concrete7.png")
(2107, 387, "./Sprites/concrete7.png")
(2107, 473, "./Sprites/concrete7.png")
(2150, 473, "./Sprites/concrete7.png")
(2193, 473, "./Sprites/concrete7.png")
(2193, 516, "./Sprites/concrete7.png")
(2193, 559, "./Sprites/concrete7.png")
(2193, 602, "./Sprites/concrete7.png")
(2193, 645, "./Sprites/concrete7.png")
(2193, 688, "./Sprites/concrete7.png")
(2236, 688, "./Sprites/concrete7.png")
(2279, 688, "./Sprites/concrete7.png")
(2279, 731, "./Sprites/concrete7.png")
(2279, 774, "./Sprites/concrete7.png")
(2279, 817, "./Sprites/concrete7.png")
(2279, 860, "./Sprites/concrete7.png")
(2279, 903, "./Sprites/concrete7.png")
(2279, 946, "./Sprites/concrete7.png")
(2408, 946, "./Sprites/concrete7.png")
(2451, 946, "./Sprites/concrete7.png")
(2494, 946, "./Sprites/concrete7.png")
(2537, 946, "./Sprites/concrete7.png")
(2322, 1118, "./Sprites/damage/spike.png")
(2365, 1118, "./Sprites/damage/spike.png")
(2580, 946, "./Sprites/concrete7.png")
(2623, 946, "./Sprites/concrete7.png")
(2881, 1032, "./Sprites/dirt.png")
(2881, 989, "./Sprites/dirt.png")
(2924, 1032, "./Sprites/dirt.png")
(2924, 989, "./Sprites/dirt.png")
(2967, 989, "./Sprites/dirt.png")
(2967, 1032, "./Sprites/dirt.png")
(2924, 946, "./Sprites/special/flag.png")
(2709, 1333, "./Sprites/dirt.png")
(2752, 1333, "./Sprites/dirt.png")
(2795, 1333, "./Sprites/dirt.png")
(2838, 1333, "./Sprites/dirt.png")
(2881, 1333, "./Sprites/dirt.png")
(2924, 1333, "./Sprites/dirt.png")
(2967, 1333, "./Sprites/dirt.png")
(2666, 1333, "./Sprites/dirt.png")
(2623, 1376, "./Sprites/dirt.png")
(2580, 1419, "./Sprites/dirt.png")
(2580, 1376, "./Sprites/dirt.png")
(2623, 1419, "./Sprites/dirt.png")
(2666, 1376, "./Sprites/dirt.png")
(2666, 1419, "./Sprites/dirt.png")
(2709, 1419, "./Sprites/dirt.png")
(2709, 1376, "./Sprites/dirt.png")
(2752, 1376, "./Sprites/dirt.png")
(2752, 1419, "./Sprites/dirt.png")
(2838, 1419, "./Sprites/dirt.png")
(2795, 1419, "./Sprites/dirt.png")
(2795, 1376, "./Sprites/dirt.png")
(2838, 1376, "./Sprites/dirt.png")
(2881, 1376, "./Sprites/dirt.png")
(2881, 1419, "./Sprites/dirt.png")
(2924, 1419, "./Sprites/dirt.png")
(2924, 1376, "./Sprites/dirt.png")
(2967, 1376, "./Sprites/dirt.png")
(2967, 1419, "./Sprites/dirt.png")
(3053, 1419, "./Sprites/dirt.png")
(3010, 1419, "./Sprites/dirt.png")
(3010, 1376, "./Sprites/dirt.png")
(3010, 1333, "./Sprites/dirt.png")
(3053, 1333, "./Sprites/dirt.png")
(3053, 1376, "./Sprites/dirt.png")
(3053, 1290, "./Sprites/dirt.png")
(3096, 1290, "./Sprites/dirt.png")
(3096, 1247, "./Sprites/dirt.png")
(3139, 1290, "./Sprites/dirt.png")
(3139, 1247, "./Sprites/dirt.png")
(3182, 1333, "./Sprites/dirt.png")
(3139, 1333, "./Sprites/dirt.png")
(3096, 1333, "./Sprites/dirt.png")
(3182, 1290, "./Sprites/dirt.png")
(3096, 1376, "./Sprites/dirt.png")
(3225, 1376, "./Sprites/dirt.png")
(3225, 1419, "./Sprites/dirt.png")
(3182, 1376, "./Sprites/dirt.png")
(3225, 1333, "./Sprites/dirt.png")
(3268, 1376, "./Sprites/dirt.png")
(3311, 1376, "./Sprites/dirt.png")
(3354, 1376, "./Sprites/dirt.png")
(3440, 1376, "./Sprites/dirt.png")
(3397, 1376, "./Sprites/dirt.png")
(3268, 1419, "./Sprites/dirt.png")
(3311, 1419, "./Sprites/dirt.png")
(2623, 1333, "./Sprites/dirt.png")
(2451, 1333, "./Sprites/dirt.png")
(2494, 1333, "./Sprites/dirt.png")
(2537, 1333, "./Sprites/dirt.png")
(2580, 1333, "./Sprites/dirt.png")
(2537, 1376, "./Sprites/dirt.png")
(2537, 1419, "./Sprites/dirt.png")
(2494, 1419, "./Sprites/dirt.png")
(2494, 1376, "./Sprites/dirt.png")
(2451, 1376, "./Sprites/dirt.png")
(2451, 1419, "./Sprites/dirt.png")
(3096, 1204, "./Sprites/special/teleporter_locked.png")
(2408, 1419, "./Sprites/dirt.png")
(2365, 1419, "./Sprites/dirt.png")
(2365, 1376, "./Sprites/dirt.png")
(2365, 1333, "./Sprites/dirt.png")
(2408, 1333, "./Sprites/dirt.png")
(2408, 1376, "./Sprites/dirt.png")
(2322, 1290, "./Sprites/dirt.png")
(2322, 1204, "./Sprites/dirt.png")
(2322, 1247, "./Sprites/dirt.png")
(2322, 1333, "./Sprites/dirt.png")
(2322, 1376, "./Sprites/dirt.png")
(2924, 1290, "./Sprites/damage/wolf-trap.png")
(2451, 1290, "./Sprites/damage/wolf-trap.png")
(2967, 946, "./Sprites/special/teleporter.png")
(3010, 989, "./Sprites/dirt.png")
(1806, 344, "./Sprites/concrete7.png")
(1892, 344, "./Sprites/concrete7.png")
(1935, 344, "./Sprites/concrete7.png")
(1978, 301, "./Sprites/concrete11-stairs.png")
(1548, 817, "./Sprites/concrete7.png")
(559, 473, "./Sprites/dirt.png")
(860, 344, "./Sprites/dirt.png")
(946, 430, "./Sprites/dirt.png")
(602, 473, "./Sprites/dirt.png")
(860, 387, "./Sprites/dirt.png")
(860, 430, "./Sprites/dirt.png")
(1677, 860, "./Sprites/concrete7.png")
(1677, 817, "./Sprites/special/teleporter.png")
(1849, 344, "./Sprites/concrete7.png")
(1720, 301, "./Sprites/concrete7.png")
(129, 344, "./Sprites/special/spawn.png")
(185, 208, 128)
86
-172
[(2494, 903, './Sprites/ennemy/fly/idle/idle.png'), (2623, 903, './Sprites/ennemy/fly/idle/idle.png'), (2709, 1118, './Sprites/ennemy/jeanpascaldelaflibustiere/phase1/idle/idle.png'), (989, 387, './Sprites/ennemy/items/marshmellow.png'), (1591, 731, './Sprites/ennemy/items/key.png'), '(2494, 903, "./Sprites/ennemy/fly/idle/idle.png")', '(2623, 903, "./Sprites/ennemy/fly/idle/idle.png")', '(2709, 1118, "./Sprites/ennemy/jeanpascaldelaflibustiere/phase1/idle/idle.png")', '(989, 387, "./Sprites/ennemy/items/marshmellow.png")', '(1591, 731, "./Sprites/ennemy/items/key.png")']
