(172, 387, "./Sprites/concrete1.png")
(215, 387, "./Sprites/concrete1.png")
(258, 387, "./Sprites/concrete1.png")
(301, 430, "./Sprites/concrete1.png")
(301, 387, "./Sprites/concrete1.png")
(344, 430, "./Sprites/concrete8.png")
(387, 473, "./Sprites/concrete8.png")
(387, 430, "./Sprites/concrete8.png")
(473, 430, "./Sprites/concrete8.png")
(473, 473, "./Sprites/concrete8.png")
(516, 430, "./Sprites/concrete8.png")
(516, 473, "./Sprites/concrete8.png")
(516, 516, "./Sprites/concrete8.png")
(473, 516, "./Sprites/concrete8.png")
(430, 516, "./Sprites/concrete8.png")
(430, 473, "./Sprites/damage/spike.png")
(559, 430, "./Sprites/concrete8.png")
(559, 473, "./Sprites/concrete8.png")
(602, 473, "./Sprites/concrete8.png")
(645, 430, "./Sprites/concrete8.png")
(645, 473, "./Sprites/special/glass.png")
(688, 430, "./Sprites/special/glass.png")
(731, 473, "./Sprites/concrete1.png")
(731, 430, "./Sprites/concrete1.png")
(688, 473, "./Sprites/concrete1.png")
(774, 430, "./Sprites/special/glass.png")
(731, 301, "./Sprites/special/glass.png")
(817, 430, "./Sprites/concrete8.png")
(860, 430, "./Sprites/concrete1.png")
(860, 473, "./Sprites/concrete1.png")
(903, 430, "./Sprites/concrete1.png")
(903, 473, "./Sprites/concrete1.png")
(946, 430, "./Sprites/concrete1.png")
(989, 430, "./Sprites/concrete1.png")
(903, 301, "./Sprites/special/glass.png")
(1032, 430, "./Sprites/concrete1-slab.png")
(1075, 602, "./Sprites/damage/spike.png")
(1118, 602, "./Sprites/damage/spike.png")
(1161, 602, "./Sprites/damage/spike.png")
(1204, 602, "./Sprites/damage/spike.png")
(1247, 602, "./Sprites/damage/spike.png")
(1290, 602, "./Sprites/damage/spike.png")
(1333, 645, "./Sprites/special/glass.png")
(1290, 645, "./Sprites/special/glass.png")
(1247, 645, "./Sprites/special/glass.png")
(1204, 645, "./Sprites/special/glass.png")
(1161, 645, "./Sprites/special/glass.png")
(1118, 645, "./Sprites/special/glass.png")
(1032, 645, "./Sprites/special/glass.png")
(1075, 645, "./Sprites/special/glass.png")
(1376, 430, "./Sprites/concrete1-slab.png")
(1419, 387, "./Sprites/special/ladder.png")
(1419, 344, "./Sprites/special/ladder.png")
(1419, 301, "./Sprites/special/ladder.png")
(1419, 258, "./Sprites/special/ladder.png")
(1419, 215, "./Sprites/special/ladder.png")
(1419, 172, "./Sprites/special/ladder.png")
(1462, 172, "./Sprites/concrete9-slab.png")
(1505, 215, "./Sprites/concrete1.png")
(1548, 215, "./Sprites/concrete1.png")
(1548, 258, "./Sprites/concrete1.png")
(1591, 258, "./Sprites/concrete1.png")
(1634, 258, "./Sprites/concrete9-slab.png")
(1677, 258, "./Sprites/concrete9-slab.png")
(1720, 258, "./Sprites/concrete9-slab.png")
(1806, 258, "./Sprites/concrete9-slab.png")
(1935, 258, "./Sprites/concrete9-slab.png")
(2021, 258, "./Sprites/concrete1.png")
(2021, 215, "./Sprites/special/flag.png")
(-387, 387, "./Sprites/obsidian.png")
(-430, 344, "./Sprites/obsidian.png")
(-430, 387, "./Sprites/obsidian.png")
(-559, 301, "./Sprites/concrete9-slab.png")
(-387, 215, "./Sprites/obsidian.png")
(-430, 301, "./Sprites/obsidian.png")
(516, 387, "./Sprites/damage/barbed.png")
(645, 387, "./Sprites/damage/barbed.png")
(602, 430, "./Sprites/special/bouncer.png")
(1849, 258, "./Sprites/concrete9-slab.png")
(1978, 258, "./Sprites/concrete9-slab.png")
(-516, 301, "./Sprites/concrete9-slab.png")
(-473, 301, "./Sprites/concrete9-slab.png")
(-258, 387, "./Sprites/concrete9-slab.png")
(-301, 387, "./Sprites/concrete9-slab.png")
(-344, 387, "./Sprites/special/bouncer.png")
(-215, 387, "./Sprites/special/bouncer.png")
(-172, 387, "./Sprites/concrete9-slab.png")
(-129, 387, "./Sprites/concrete9-slab.png")
(-86, 387, "./Sprites/concrete9-slab.png")
(-43, 387, "./Sprites/concrete9-slab.png")
(0, 387, "./Sprites/concrete9-slab.png")
(43, 387, "./Sprites/concrete9-slab.png")
(129, 387, "./Sprites/concrete9-slab.png")
(86, 387, "./Sprites/concrete9-slab.png")
(-602, 301, "./Sprites/concrete9-slab.png")
(1419, 430, "./Sprites/special/glass.png")
(1376, 473, "./Sprites/special/glass.png")
(1419, 473, "./Sprites/special/glass.png")
(1333, 473, "./Sprites/special/glass.png")
(1333, 516, "./Sprites/special/glass.png")
(1333, 559, "./Sprites/special/glass.png")
(1333, 602, "./Sprites/special/glass.png")
(1032, 473, "./Sprites/special/glass.png")
(1032, 516, "./Sprites/special/glass.png")
(1032, 559, "./Sprites/special/glass.png")
(1032, 602, "./Sprites/special/glass.png")
(989, 473, "./Sprites/special/glass.png")
(1075, 430, "./Sprites/special/iron_crate.png")
(1075, 516, "./Sprites/special/falling_platform.png")
(1118, 516, "./Sprites/special/falling_platform.png")
(1161, 516, "./Sprites/special/falling_platform.png")
(1204, 516, "./Sprites/special/falling_platform.png")
(1247, 516, "./Sprites/special/falling_platform.png")
(1290, 516, "./Sprites/special/falling_platform.png")
(258, 344, "./Sprites/special/spawn.png")
(43, 44, 90)
-817
-43
[(1591, 215, './Sprites/ennemy/fly/idle/idle.png'), (774, 344, './Sprites/ennemy/angel/angel.png'), (-387, 301, './Sprites/ennemy/angel/angel.png'), (-559, 215, './Sprites/ennemy/items/key.png'), (-387, 172, './Sprites/ennemy/items/marshmellow.png'), '(1591, 215, "./Sprites/ennemy/fly/idle/idle.png")', '(774, 344, "./Sprites/ennemy/angel/angel.png")', '(-387, 301, "./Sprites/ennemy/angel/angel.png")', '(-559, 215, "./Sprites/ennemy/items/key.png")', '(-387, 172, "./Sprites/ennemy/items/marshmellow.png")']
